{
	"info": {
		"_postman_id": "5537c044-8fb5-43f4-9251-29c755cd7a22",
		"name": "Mezubo",
		"schema": "https://schema.getpostman.com/json/collection/v2.1.0/collection.json",
		"_exporter_id": "2975183"
	},
	"item": [
		{
			"name": "Create Rulette",
			"request": {
				"method": "POST",
				"header": [],
				"body": {
					"mode": "raw",
					"raw": "{\n    \n}",
					"options": {
						"raw": {
							"language": "json"
						}
					}
				},
				"url": {
					"raw": "http://137.184.15.189:5005/api/v1/create_roulette",
					"protocol": "http",
					"host": [
						"137",
						"184",
						"15",
						"189"
					],
					"port": "5005",
					"path": [
						"api",
						"v1",
						"create_roulette"
					]
				}
			},
			"response": []
		},
		{
			"name": "Open Rulette",
			"request": {
				"method": "PUT",
				"header": [],
				"body": {
					"mode": "raw",
					"raw": "{\n    \n}",
					"options": {
						"raw": {
							"language": "json"
						}
					}
				},
				"url": {
					"raw": "http://137.184.15.189:5005/api/v1/open_roulette/64a3adcd84d1d53c780f88b7",
					"protocol": "http",
					"host": [
						"137",
						"184",
						"15",
						"189"
					],
					"port": "5005",
					"path": [
						"api",
						"v1",
						"open_roulette",
						"64a3adcd84d1d53c780f88b7"
					]
				}
			},
			"response": []
		},
		{
			"name": "Bet id_user 1",
			"request": {
				"method": "PUT",
				"header": [
					{
						"key": "id_user",
						"value": "1",
						"type": "text"
					}
				],
				"body": {
					"mode": "raw",
					"raw": "{\n  \"apuestas\": [\n    {\n      \"numero_o_color\": 15,\n      \"cantidad\": 5000\n    },\n    {\n      \"numero_o_color\": \"NEGRO\",\n      \"cantidad\": 5000\n    }\n  ]\n}",
					"options": {
						"raw": {
							"language": "json"
						}
					}
				},
				"url": {
					"raw": "http://137.184.15.189:5005/api/v1/bet_roulette/64a3adcd84d1d53c780f88b7",
					"protocol": "http",
					"host": [
						"137",
						"184",
						"15",
						"189"
					],
					"port": "5005",
					"path": [
						"api",
						"v1",
						"bet_roulette",
						"64a3adcd84d1d53c780f88b7"
					]
				}
			},
			"response": []
		},
		{
			"name": "Bet id_user 3",
			"request": {
				"method": "PUT",
				"header": [
					{
						"key": "id_user",
						"value": "3",
						"type": "text"
					}
				],
				"body": {
					"mode": "raw",
					"raw": "{\n  \"apuestas\": [\n    {\n      \"numero_o_color\": 12,\n      \"cantidad\": 5000\n    },\n    {\n      \"numero_o_color\": \"ROJO\",\n      \"cantidad\": 5000\n    }\n  ]\n}",
					"options": {
						"raw": {
							"language": "json"
						}
					}
				},
				"url": {
					"raw": "http://137.184.15.189:5005/api/v1/bet_roulette/64a3adcd84d1d53c780f88b7",
					"protocol": "http",
					"host": [
						"137",
						"184",
						"15",
						"189"
					],
					"port": "5005",
					"path": [
						"api",
						"v1",
						"bet_roulette",
						"64a3adcd84d1d53c780f88b7"
					]
				}
			},
			"response": []
		},
		{
			"name": "Bet id_user 2",
			"request": {
				"method": "PUT",
				"header": [
					{
						"key": "id_user",
						"value": "2",
						"type": "text"
					}
				],
				"body": {
					"mode": "raw",
					"raw": "{\n  \"apuestas\": [\n    {\n      \"numero_o_color\": \"NEGRO\",\n      \"cantidad\": 7500\n    },\n    {\n      \"numero_o_color\": 25,\n      \"cantidad\": 2500\n    }\n  ]\n}",
					"options": {
						"raw": {
							"language": "json"
						}
					}
				},
				"url": {
					"raw": "http://137.184.15.189:5005/api/v1/bet_roulette/64a3adcd84d1d53c780f88b7",
					"protocol": "http",
					"host": [
						"137",
						"184",
						"15",
						"189"
					],
					"port": "5005",
					"path": [
						"api",
						"v1",
						"bet_roulette",
						"64a3adcd84d1d53c780f88b7"
					]
				}
			},
			"response": []
		},
		{
			"name": "Close Rulette",
			"request": {
				"method": "GET",
				"header": [],
				"url": {
					"raw": "http://137.184.15.189:5005/api/v1/close_roulette/64a3adcd84d1d53c780f88b7",
					"protocol": "http",
					"host": [
						"137",
						"184",
						"15",
						"189"
					],
					"port": "5005",
					"path": [
						"api",
						"v1",
						"close_roulette",
						"64a3adcd84d1d53c780f88b7"
					]
				}
			},
			"response": []
		}
	]
}